{
    "$schema": "https://json.schemastore.org/launchsettings.json",
    "iisSettings": {
      "windowsAuthentication": false,
      "anonymousAuthentication": true,
      "iisExpress": {
        "applicationUrl": "http://localhost:23805",
        "sslPort": 44396
      }
    },
    "profiles": {
      "ReplicaApi": {
        "commandName": "Project",
        "dotnetRunMessages": true,
        "launchBrowser": true,
        "launchUrl": "swagger",
        "applicationUrl": "http://localhost:8080",
        "environmentVariables": {
          "ASPNETCORE_ENVIRONMENT": "Development"
        }
      },
      "IIS Express": {
        "commandName": "IISExpress",
        "launchBrowser": true,
        "launchUrl": "swagger",
        "environmentVariables": {
          "ASPNETCORE_ENVIRONMENT": "Development"
        }
      }
    }
  }
  