{
    "name": "leanmind",
    "dockerComposeFile": "../compose-dev.yaml",
    "service": "leanmind",
	"customizations": {
		"vscode": {
			"extensions": [
				"ms-dotnettools.csharp",
				"jmrog.vscode-nuget-package-manager",
				"aliasadidev.nugetpackagemanagergui",
				"ms-mssql.mssql",
				"cweijan.vscode-office",
				"jebbs.plantuml",
				"fernandoescolar.vscode-solution-explorer",
				"ms-dotnettools.vscodeintellicode-csharp",
				"vivaxy.vscode-conventional-commits",
				"Natizyskunk.sftp",
				"ms-dotnettools.csdevkit",
				"eamodio.gitlens",
				"MS-vsliveshare.vsliveshare"
			]
		}
	}
  }
